{
    "exampleA": "asset_image.json",
    "exampleB": {
        "filename": "example_a.png",
        "grid": { "uv": [ 0.25, 0.25 ] },
        "frames": {
            "TopHalf": { "cell": [ [ 0, 0 ], [ 4, 2 ] ] },
            "BottomHalf": { "cell": [ [ 0, 2 ], [ 4, 4 ] ] },
        },
    },
}
